lab 6/.Xil/Vivado-3344-shlab_32-PC/hw_ila_data_1/zip_work/waveform.vcd
$date
        2018-Jun-27 19:59:38
$end
$version
        Vivado v2017.2 (64-bit)
$end
$timescale
        1ps
$end
$scope module dut $end
$var reg 32 " design_1_i/compute_sad_0/inst/compute_sad_v1_0_S00_AXI_inst/index [31:0] $end
$var reg 32 B design_1_i/compute_sad_0/inst/compute_sad_v1_0_S00_AXI_inst/slv_reg10 [31:0] $end
$var reg 32 b design_1_i/compute_sad_0/inst/compute_sad_v1_0_S00_AXI_inst/slv_reg9 [31:0] $end
$var reg 256 $" design_1_i/compute_sad_0/inst/compute_sad_v1_0_S00_AXI_inst/data_out [255:0] $end
$var reg 256 h$ design_1_i/compute_sad_0/inst/compute_sad_v1_0_S00_AXI_inst/data_in [255:0] $end
$var reg 13 N' \design_1_i/compute_sad_0/inst/compute_sad_v1_0_S00_AXI_inst/ans[3]_35 [12:0] $end
$var reg 13 [' \design_1_i/compute_sad_0/inst/compute_sad_v1_0_S00_AXI_inst/ans[1]_33 [12:0] $end
$var reg 13 h' \design_1_i/compute_sad_0/inst/compute_sad_v1_0_S00_AXI_inst/ans[2]_34 [12:0] $end
$var reg 13 u' \design_1_i/compute_sad_0/inst/compute_sad_v1_0_S00_AXI_inst/ans[0]_36 [12:0] $end
$var reg 32 $( design_1_i/compute_sad_0/inst/compute_sad_v1_0_S00_AXI_inst/addr [31:0] $end
$var reg 5 D( design_1_i/compute_sad_0/inst/compute_sad_v1_0_S00_AXI_inst/P_next [4:0] $end
$var reg 5 I( design_1_i/compute_sad_0/inst/compute_sad_v1_0_S00_AXI_inst/P [4:0] $end
$var reg 1 N( _TRIGGER $end
$var reg 1 O( _WINDOW $end
$var reg 1 P( _GAP $end
$upscope $end
$enddefinitions $end
#0
$dumpvars
b0 "
b0 B
b1 b
b110010101101001011001100100111100111000001011010011001000111000001110110011111001000101010100100101101101100010011001000110010001100011011001110111000101111101011111100111111001111110011111100111111110000100100010101000101110000111100001000111110001100010 $"
b1110111011101110111011011110110111101101111011011110110111101101111011101110111011101110111011101110110111101110111011111110111111101111111011111110111111101111111011111110111011101110111011101110111011101110111011101110111111110010111100101111001011110010 h$
b0 N'
b0 ['
b0 h'
b0 u'
b1 $(
b1 D(
b1 I(
1N(
1O(
0P(
$end
#1
b1 "
b110011001101000011010000101001000111001001010100010111100110101001110000011101001000011010011110101100001100010011000110110001101100010011010000111000001110111011101110111100001111001011110100111101101111011100000101000010110000011100000100111101101100000 $"
b10 $(
#2
b10 "
b101110001100100011001000101001100111011001011000010101100110000001101010011011100111111010011000101010101011101011000000110000001100000011000000110100001110011011110000111001101110011011100110111001101111101011111100111110101111101011111010111101101011011 $"
b11 $(
#3
b11 "
b101010101100001011000010101000100111100001100000010110000101110001101010011100101000000010010100101001001011011010111010101111001011111011001000110101001110110011111000111101101111011011110110111110010000000100000011000001010000010011110010111100101011001 $"
b100 $(
#4
b100 "
b101000001100001010110110100101000111101001101110011001000110001001101100011111001000100010011000101001001011000010111000110000001100001011010000110110001110110011111111000010010000100100001011000010110000111100001111000011110000111100000010111100101010011 $"
b101 $(
#5
b101 "
b100110101100110010110110100011000111101001110110011011100110100001110010100010001000111010011100101001101011010010111010110001001100100011001100110100101110001011110111000011010000110100001101000011010000110100001011000011010000110100011000111110001001101 $"
b110 $(
#6
b110 "
b100100001100000010111010011111100111011010000010011101000110111001111010100010101001011010100010101100101011111011000010110010001100101011001010110011101101010011100100111110110000100100001101000001101111110100000011000000110000010100001011000000101010001 $"
b111 $(
#7
b111 "
b100000001011000011000000100010100111011001111010011101100111011010000000100101001001110010100110101010101010111010110010101111001100000011000000101111101100011011010010110111001111000011110000111000101101110011100010111001101110011011110000111011001001111 $"
b1000 $(
#8
b1000 "
b11110001001110011001100101010100111110001111000100001001000100010001000100110101010010010100110100110101001101010011100101001001010010010100100101001001010010010100110101101001101011011011010101111101010100010101000101011101011110011011000110101001000111 $"
b1001 $(
#9
b1001 "
b11101101001001011001100101111101001010010000100100101001001100010010100101000101010101010100010100100101000001010000010011111100111110010000000011110100111100001111010100101101100011011010010101011101000011001111100100001001010011011011000110101001000010 $"
b1010 $(
#10
b1010 "
b11110100111110010110000110001101010011010010110100111001001110010011100100111101010101010101110101000101000100001110010011010100110101001101010011010000110101001101110100011001100011011100000110000001000010001111010100010101011100011110110111010101000011 $"
b1011 $(
#11
b1011 "
b11101100110110010100100110010101010110010010110100110101001110010011110101000001010110010111110101111101010110010011010100001101000001001111000011111001000010001111100100011101100011011110110111000101010100010100010101100001101111100001110111101001000100 $"
b1100 $(
#12
b1100 "
b11101000111000010110000110101101011001010010100100101001001100010011100100111001010010010111100110010101100010010111110101100001010101010100010101001001001111010001100100010101011110100000011000001101101010011010000110011101110011011111110110111100111110 $"
b1101 $(
#13
b1101 "
b11101100111010010110100110101101010100010010100100101001001010010010110100101101001100010101010101110101100101011001010110001101100010010111110101110001011000010011010100011001011110011111111000010001110100011100010110101001101110011101110110101001000001 $"
b1110 $(
#14
b1110 "
b11100000110111010110110101111101000010001110010100010001001001010010110100110101001100010011100101000101011010010111100110010101100111011010100110010001011101010101000101000101100001011111001000110001111111011110010110110101101010011100000111100001101011 $"
b1111 $(
#15
b1111 "
b11010100111011010101000101001000110000001010010011111001001011010010110100101101001000010001110100011101001101010101000101111101100111011011010110010001011000010100100101010001011110011100111000011001111111011111010110111001100111011101001000111110010110 $"
b10000 $(
#16
b10000 "
b11011000111111010010100100001100100100001000000011101001001110010100000100011001000101010001000100010001000101010010110101100001100100011010010101111001001101010010010100101101010010011001000111011001110001011101100111000001101100011111011001111110101111 $"
b10001 $(
#17
b10001 "
b100000001000001001111110011010000011110000110110011001001000110010011010100010001000011010001000100010001000101010001110101001001100000011000100101100001001000010000000100001001000111010101010110011101100101011001110110111001110001100001101010101010110101 $"
b10010 $(
#18
b10010 "
b100110101000001001110000010110000011011000110000010110000111111010001010100001001000100010001000100010101000110010010000100111101010110010101110101001101001010010000100100000101000011010100100110011101101010010111110110011001101101100010101010100110101001 $"
b10011 $(
#19
b10011 "
b101000100111101001011010010001100011010001000010011001000111110010000010100001001000100010010000100100001001000010010010100111001001111010100010101001101010001010010100100100101001100010111010111000001110101011001000110001001100111011111111001010110010011 $"
b10100 $(
#20
b10100 "
b100110100110100001001000010000100100111001110010100001000111111001111000100001001000100010010010100101001001010010011010100101101000111010001100100101001001100010010100100110001010000010111100110100101101011011001100110100001100010011001000110110101101100 $"
b10101 $(
#21
b10101 "
b100001100101011001000100010110101000010010101100101010001000100001111100011111001000010010001110100101001001010010011110100100101000001001110100011110000111101001111010100010101001000010100110101010101010101010111110110100101010111010001110100100101000101 $"
b10110 $(
#22
b10110 "
b11110100101001001100110100101101011111011010000101110001000110001110100011101100111101010000110100100101001011010011110100110101000100001111010011011000110100001110100011111001000010010010110101001001010011010101110110000101001000001101000010111100101010 $"
b10111 $(
#23
b10111 "
b11010100101010010010000110011001110000011000000101010101000111001111000011101000111010001111110100010101001100010011110101001001001100010010010100000000111110010001000100110001001100010101010110000001100100010110110101010100111101001010110010011100100010 $"
b11000 $(
#24
b11000 "
b10100100101001010100100110110001101010010100110100110001001000001111110011101000111000001110100100000001001011010011010101010001010011010100010100111001001100010011010101010101011000011000110111000101110101010111110100011000110000001001010010010000100010 $"
b11001 $(
#25
b11001 "
b1111000100011010011000110010001010111010011010100100101000111010000000011110000110111001110000011110001000101010010000101000101010101010110000101100001010110010101000101010101011110011001110111001101110101010110000011011100101000000111110010001000100010 $"
b11010 $(
#26
b11010 "
b1011100010111001110100101101101010100010011100100110001000111010000010011101100110110001101010011100000111111010000110100100101001111010110110101111001011100010110000101101101100010011011010111010001110011010100110011000100100001000111110010000100100000 $"
b11011 $(
#27
b11011 "
b1001000001111001010010100111101011010010101010101000101001010010000100011101000111000001101010011010100111000001110010011110101000011010101000101101001011110010111000101110101100011011010110111001101110001010100000010110100011111000111110010000000011111 $"
b11100 $(
#28
b11100 "
b1000000001111000110010011110101100000011000000101011101001101010000110011110000111011001110000011010100110101001101010011010100110111010001000100110001010101010101010101001101011010011001000110111001101011010010000010100000011111000111100001111000011110 $"
b11101 $(
#29
b11101 "
b1001100010100000100100010110101011000011001000101111001010000010001000011111000111110001111000011100100110111001101010011001100110010001110000011111101000111010001110100100001001111010111000110010101100111010000010010010000011101000111100001110100011110 $"
b11110 $(
#30
b11110 "
b1010000010111000100000001110100111111010111010110000001001110010000010011111100111111001111100011110000111001001101100011010000110011001101000011101101000010010000100100101101010000010101100101101101011011001101110001111100011100000111100001111000011110 $"
b11111 $(
#31
b11111 "
b1010000010101000011100001001000100011010001100101010101001101010000100011111100111110001111110100000000111011001101110011010100110100001101110011111101001000010010100101001101010010010011100100101001000000001010010001110000011100000111100001111000011101 $"
b100000 $(
b10 D(
#32
b100000 "
b0 $"
b10 I(
#33
b11 D(
#34
b11 I(
#35
b100 D(
#36
b101 D(
b100 I(
#37
b110 D(
b101 I(
#38
b111 D(
b110 I(
#39
b10 D(
b111 I(
#40
b11101010110 u'
b11 D(
b10 I(
#41
b100 D(
b11 I(
#42
b101 D(
b100 I(
#43
b110 D(
b101 I(
#44
b111 D(
b110 I(
#45
b10 D(
b111 I(
#46
b1011000101110 ['
b11 D(
b10 I(
#47
b100 D(
b11 I(
#48
b101 D(
b100 I(
#49
b110 D(
b101 I(
#50
b111 D(
b110 I(
#51
b10 D(
b111 I(
#52
b1000000101011 h'
b11 D(
b10 I(
#53
b100 D(
b11 I(
#54
b101 D(
b100 I(
#55
b110 D(
b101 I(
#56
b111 D(
b110 I(
#57
b1000 D(
b111 I(
#58
b110101110001 N'
b1001 D(
b1000 I(
#59
b11101100100000 B
b0 $(
b0 D(
b1001 I(
#60
b0 b
b1 $(
b0 I(
#61
b0 "
b0 $(
#62
b110010101101001011001100100111100111000001011010011001000111000001110110011111001000101010100100101101101100010011001000110010001100011011001110111000101111101011111100111111001111110011111100111111110000100100010101000101110000111100001000111110001100010 $"
#143
b1110111011101110111011011110110111101101111011011110110111101101111011101110111011101110111011101110110111101110111011111110111111101111111011111110111111101111111011111110111011101110111011101110111011101110111011101110111111110001111100101111001011110000 h$
#179
b1110111011101110111011011110110111101101111011011110110111101101111011101110111011101110111011101110110111101110111011111110111111101111111011111110111111101111111011111110111111101110111011101110111011101110111011101110111111110001111100101111001011110000 h$
#220
b1110111011101110111011011110110111101101111011011110110111101101111011101110111011101110111011101110111011101110111011111110111111101111111011111110111111101111111011111110111111101110111011101110111011101110111011101110111111110001111100101111001011110000 h$
#256
b1110111011101110111011011110110111101101111011011110110111101110111011101110111011101110111011101110111011101110111011111110111111101111111011111110111111101111111011111110111111101110111011101110111011101110111011101110111111110001111100101111001011110000 h$
#274
b1110111011101110111011101110110111101101111011011110110111101110111011101110111011101110111011101110111011101110111011111110111111101111111011111110111111101111111011111110111111101110111011101110111011101110111011101110111111110001111100101111001011110000 h$
#294
b1 b
b1 D(
#295
b1 $(
b1 I(
#296
b1 "
b110011001101000011010000101001000111001001010100010111100110101001110000011101001000011010011110101100001100010011000110110001101100010011010000111000001110111011101110111100001111001011110100111101101111011100000101000010110000011100000100111101101100000 $"
b10 $(
#297
b10 "
b101110001100100011001000101001100111011001011000010101100110000001101010011011100111111010011000101010101011101011000000110000001100000011000000110100001110011011110000111001101110011011100110111001101111101011111100111110101111101011111010111101101011011 $"
b11 $(
#298
b11 "
b101010101100001011000010101000100111100001100000010110000101110001101010011100101000000010010100101001001011011010111010101111001011111011001000110101001110110011111000111101101111011011110110111110010000000100000011000001010000010011110010111100101011001 $"
b100 $(
#299
b100 "
b101000001100001010110110100101000111101001101110011001000110001001101100011111001000100010011000101001001011000010111000110000001100001011010000110110001110110011111111000010010000100100001011000010110000111100001111000011110000111100000010111100101010011 $"
b101 $(
#300
b101 "
b100110101100110010110110100011000111101001110110011011100110100001110010100010001000111010011100101001101011010010111010110001001100100011001100110100101110001011110111000011010000110100001101000011010000110100001011000011010000110100011000111110001001101 $"
b110 $(
#301
b110 "
b100100001100000010111010011111100111011010000010011101000110111001111010100010101001011010100010101100101011111011000010110010001100101011001010110011101101010011100100111110110000100100001101000001101111110100000011000000110000010100001011000000101010001 $"
b111 $(
#302
b111 "
b100000001011000011000000100010100111011001111010011101100111011010000000100101001001110010100110101010101010111010110010101111001100000011000000101111101100011011010010110111001111000011110000111000101101110011100010111001101110011011110000111011001001111 $"
b1000 $(
#303
b1000 "
b11110001001110011001100101010100111110001111000100001001000100010001000100110101010010010100110100110101001101010011100101001001010010010100100101001001010010010100110101101001101011011011010101111101010100010101000101011101011110011011000110101001000111 $"
b1001 $(
#304
b1001 "
b11101101001001011001100101111101001010010000100100101001001100010010100101000101010101010100010100100101000001010000010011111100111110010000000011110100111100001111010100101101100011011010010101011101000011001111100100001001010011011011000110101001000010 $"
b1010 $(
#305
b1010 "
b11110100111110010110000110001101010011010010110100111001001110010011100100111101010101010101110101000101000100001110010011010100110101001101010011010000110101001101110100011001100011011100000110000001000010001111010100010101011100011110110111010101000011 $"
b1011 $(
#306
b1011 "
b11101100110110010100100110010101010110010010110100110101001110010011110101000001010110010111110101111101010110010011010100001101000001001111000011111001000010001111100100011101100011011110110111000101010100010100010101100001101111100001110111101001000100 $"
b1100 $(
#307
b1100 "
b11101000111000010110000110101101011001010010100100101001001100010011100100111001010010010111100110010101100010010111110101100001010101010100010101001001001111010001100100010101011110100000011000001101101010011010000110011101110011011111110110111100111110 $"
b1101 $(
#308
b1101 "
b11101100111010010110100110101101010100010010100100101001001010010010110100101101001100010101010101110101100101011001010110001101100010010111110101110001011000010011010100011001011110011111111000010001110100011100010110101001101110011101110110101001000001 $"
b1110 $(
#309
b1110 "
b11100000110111010110110101111101000010001110010100010001001001010010110100110101001100010011100101000101011010010111100110010101100111011010100110010001011101010101000101000101100001011111001000110001111111011110010110110101101010011100000111100001101011 $"
b1111 $(
#310
b1111 "
b11010100111011010101000101001000110000001010010011111001001011010010110100101101001000010001110100011101001101010101000101111101100111011011010110010001011000010100100101010001011110011100111000011001111111011111010110111001100111011101001000111110010110 $"
b10000 $(
#311
b10000 "
b11011000111111010010100100001100100100001000000011101001001110010100000100011001000101010001000100010001000101010010110101100001100100011010010101111001001101010010010100101101010010011001000111011001110001011101100111000001101100011111011001111110101111 $"
b10001 $(
#312
b10001 "
b100000001000001001111110011010000011110000110110011001001000110010011010100010001000011010001000100010001000101010001110101001001100000011000100101100001001000010000000100001001000111010101010110011101100101011001110110111001110001100001101010101010110101 $"
b10010 $(
#313
b10010 "
b100110101000001001110000010110000011011000110000010110000111111010001010100001001000100010001000100010101000110010010000100111101010110010101110101001101001010010000100100000101000011010100100110011101101010010111110110011001101101100010101010100110101001 $"
b10011 $(
#314
b10011 "
b101000100111101001011010010001100011010001000010011001000111110010000010100001001000100010010000100100001001000010010010100111001001111010100010101001101010001010010100100100101001100010111010111000001110101011001000110001001100111011111111001010110010011 $"
b10100 $(
#315
b10100 "
b100110100110100001001000010000100100111001110010100001000111111001111000100001001000100010010010100101001001010010011010100101101000111010001100100101001001100010010100100110001010000010111100110100101101011011001100110100001100010011001000110110101101100 $"
b10101 $(
#316
b10101 "
b100001100101011001000100010110101000010010101100101010001000100001111100011111001000010010001110100101001001010010011110100100101000001001110100011110000111101001111010100010101001000010100110101010101010101010111110110100101010111010001110100100101000101 $"
b10110 $(
#317
b10110 "
b11110100101001001100110100101101011111011010000101110001000110001110100011101100111101010000110100100101001011010011110100110101000100001111010011011000110100001110100011111001000010010010110101001001010011010101110110000101001000001101000010111100101010 $"
b10111 $(
#318
b10111 "
b11010100101010010010000110011001110000011000000101010101000111001111000011101000111010001111110100010101001100010011110101001001001100010010010100000000111110010001000100110001001100010101010110000001100100010110110101010100111101001010110010011100100010 $"
b11000 $(
#319
b11000 "
b10100100101001010100100110110001101010010100110100110001001000001111110011101000111000001110100100000001001011010011010101010001010011010100010100111001001100010011010101010101011000011000110111000101110101010111110100011000110000001001010010010000100010 $"
b11001 $(
#320
b11001 "
b1111000100011010011000110010001010111010011010100100101000111010000000011110000110111001110000011110001000101010010000101000101010101010110000101100001010110010101000101010101011110011001110111001101110101010110000011011100101000000111110010001000100010 $"
b11010 $(
#321
b11010 "
b1011100010111001110100101101101010100010011100100110001000111010000010011101100110110001101010011100000111111010000110100100101001111010110110101111001011100010110000101101101100010011011010111010001110011010100110011000100100001000111110010000100100000 $"
b11011 $(
#322
b11011 "
b1001000001111001010010100111101011010010101010101000101001010010000100011101000111000001101010011010100111000001110010011110101000011010101000101101001011110010111000101110101100011011010110111001101110001010100000010110100011111000111110010000000011111 $"
b11100 $(
#323
b11100 "
b1000000001111000110010011110101100000011000000101011101001101010000110011110000111011001110000011010100110101001101010011010100110111010001000100110001010101010101010101001101011010011001000110111001101011010010000010100000011111000111100001111000011110 $"
b11101 $(
#324
b11101 "
b1001100010100000100100010110101011000011001000101111001010000010001000011111000111110001111000011100100110111001101010011001100110010001110000011111101000111010001110100100001001111010111000110010101100111010000010010010000011101000111100001110100011110 $"
b11110 $(
#325
b11110 "
b1010000010111000100000001110100111111010111010110000001001110010000010011111100111111001111100011110000111001001101100011010000110011001101000011101101000010010000100100101101010000010101100101101101011011001101110001111100011100000111100001111000011110 $"
b11111 $(
#326
b11111 "
b1010000010101000011100001001000100011010001100101010101001101010000100011111100111110001111110100000000111011001101110011010100110100001101110011111101001000010010100101001101010010010011100100101001000000001010010001110000011100000111100001111000011101 $"
b100000 $(
b10 D(
#327
b100000 "
b0 $"
b10 I(
#328
b11 D(
#329
b11 I(
#330
b100 D(
#331
b101 D(
b100 I(
#332
b110 D(
b101 I(
#333
b111 D(
b110 I(
#334
b10 D(
b111 I(
#335
b11110101011 u'
b11 D(
b10 I(
#336
b100 D(
b11 I(
#337
b101 D(
b100 I(
#338
b110 D(
b101 I(
#339
b111 D(
b110 I(
#340
b10 D(
b111 I(
#341
b1011010101010 ['
b11 D(
b10 I(
#342
b100 D(
b11 I(
#343
b101 D(
b100 I(
#344
b110 D(
b101 I(
#345
b111 D(
b110 I(
#346
b10 D(
b111 I(
#347
b1000000100001 h'
b11 D(
b10 I(
#348
b100 D(
b11 I(
#349
b101 D(
b100 I(
#350
b110 D(
b101 I(
#351
b111 D(
b110 I(
#352
b1000 D(
b111 I(
#353
b110110011101 N'
b1001 D(
b1000 I(
#354
b11110000010011 B
b0 $(
b0 D(
b1001 I(
#355
b0 b
b1 $(
b0 I(
#356
b0 "
b0 $(
#357
b110010101101001011001100100111100111000001011010011001000111000001110110011111001000101010100100101101101100010011001000110010001100011011001110111000101111101011111100111111001111110011111100111111110000100100010101000101110000111100001000111110001100010 $"
#429
b1110111011101110111011101110110111101101111011011110110111101110111011101110111011101110111011101110111011101110111011111110111111101111111011111110111111101111111011111110111111101110111011101110111011101110111011101110111111110000111100011111000111110000 h$
#447
b1110111011101110111011101110110111101101111011011110110111101110111011101110111011101110111011101110111011101110111011111110111111101111111011111110111111101111111011111110111111101110111011101110111111101111111011111110111111110000111100011111000111110000 h$
#465
b1110111011101110111011101110110111101101111011011110110111101110111011101110111011101110111011101110111011101110111011111110111111101111111011111110111111101111111011111111000011110000111011111110111111101111111011111110111111110000111100011111000111110000 h$
#524
b1110111011101110111011101110110111101101111011011110110111101110111011101110111111101111111011101110111011101110111011111110111111101111111011111110111111101111111011111111000011110000111011111110111111101111111011111110111111110000111100011111000111110000 h$
#560
b1110111011101110111011101110111011101101111011011110110111101110111011101110111111101111111011101110111011101110111011111110111111101111111011111110111111101111111011111111000011110000111011111110111111101111111011111110111111110000111100011111000111110000 h$
#579
b1 b
b1 D(
#580
b1 $(
b1 I(
#581
b1 "
b110011001101000011010000101001000111001001010100010111100110101001110000011101001000011010011110101100001100010011000110110001101100010011010000111000001110111011101110111100001111001011110100111101101111011100000101000010110000011100000100111101101100000 $"
b10 $(
#582
b10 "
b101110001100100011001000101001100111011001011000010101100110000001101010011011100111111010011000101010101011101011000000110000001100000011000000110100001110011011110000111001101110011011100110111001101111101011111100111110101111101011111010111101101011011 $"
b11 $(
#583
b11 "
b101010101100001011000010101000100111100001100000010110000101110001101010011100101000000010010100101001001011011010111010101111001011111011001000110101001110110011111000111101101111011011110110111110010000000100000011000001010000010011110010111100101011001 $"
b100 $(
#584
b100 "
b101000001100001010110110100101000111101001101110011001000110001001101100011111001000100010011000101001001011000010111000110000001100001011010000110110001110110011111111000010010000100100001011000010110000111100001111000011110000111100000010111100101010011 $"
b101 $(
#585
b101 "
b100110101100110010110110100011000111101001110110011011100110100001110010100010001000111010011100101001101011010010111010110001001100100011001100110100101110001011110111000011010000110100001101000011010000110100001011000011010000110100011000111110001001101 $"
b110 $(
#586
b110 "
b100100001100000010111010011111100111011010000010011101000110111001111010100010101001011010100010101100101011111011000010110010001100101011001010110011101101010011100100111110110000100100001101000001101111110100000011000000110000010100001011000000101010001 $"
b111 $(
#587
b111 "
b100000001011000011000000100010100111011001111010011101100111011010000000100101001001110010100110101010101010111010110010101111001100000011000000101111101100011011010010110111001111000011110000111000101101110011100010111001101110011011110000111011001001111 $"
b1000 $(
#588
b1000 "
b11110001001110011001100101010100111110001111000100001001000100010001000100110101010010010100110100110101001101010011100101001001010010010100100101001001010010010100110101101001101011011011010101111101010100010101000101011101011110011011000110101001000111 $"
b1001 $(
#589
b1001 "
b11101101001001011001100101111101001010010000100100101001001100010010100101000101010101010100010100100101000001010000010011111100111110010000000011110100111100001111010100101101100011011010010101011101000011001111100100001001010011011011000110101001000010 $"
b1010 $(
#590
b1010 "
b11110100111110010110000110001101010011010010110100111001001110010011100100111101010101010101110101000101000100001110010011010100110101001101010011010000110101001101110100011001100011011100000110000001000010001111010100010101011100011110110111010101000011 $"
b1011 $(
#591
b1011 "
b11101100110110010100100110010101010110010010110100110101001110010011110101000001010110010111110101111101010110010011010100001101000001001111000011111001000010001111100100011101100011011110110111000101010100010100010101100001101111100001110111101001000100 $"
b1100 $(
#592
b1100 "
b11101000111000010110000110101101011001010010100100101001001100010011100100111001010010010111100110010101100010010111110101100001010101010100010101001001001111010001100100010101011110100000011000001101101010011010000110011101110011011111110110111100111110 $"
b1101 $(
#593
b1101 "
b11101100111010010110100110101101010100010010100100101001001010010010110100101101001100010101010101110101100101011001010110001101100010010111110101110001011000010011010100011001011110011111111000010001110100011100010110101001101110011101110110101001000001 $"
b1110 $(
#594
b1110 "
b11100000110111010110110101111101000010001110010100010001001001010010110100110101001100010011100101000101011010010111100110010101100111011010100110010001011101010101000101000101100001011111001000110001111111011110010110110101101010011100000111100001101011 $"
b1111 $(
#595
b1111 "
b11010100111011010101000101001000110000001010010011111001001011010010110100101101001000010001110100011101001101010101000101111101100111011011010110010001011000010100100101010001011110011100111000011001111111011111010110111001100111011101001000111110010110 $"
b10000 $(
#596
b10000 "
b11011000111111010010100100001100100100001000000011101001001110010100000100011001000101010001000100010001000101010010110101100001100100011010010101111001001101010010010100101101010010011001000111011001110001011101100111000001101100011111011001111110101111 $"
b10001 $(
#597
b10001 "
b100000001000001001111110011010000011110000110110011001001000110010011010100010001000011010001000100010001000101010001110101001001100000011000100101100001001000010000000100001001000111010101010110011101100101011001110110111001110001100001101010101010110101 $"
b10010 $(
#598
b10010 "
b100110101000001001110000010110000011011000110000010110000111111010001010100001001000100010001000100010101000110010010000100111101010110010101110101001101001010010000100100000101000011010100100110011101101010010111110110011001101101100010101010100110101001 $"
b10011 $(
#599
b10011 "
b101000100111101001011010010001100011010001000010011001000111110010000010100001001000100010010000100100001001000010010010100111001001111010100010101001101010001010010100100100101001100010111010111000001110101011001000110001001100111011111111001010110010011 $"
b10100 $(
#600
b10100 "
b100110100110100001001000010000100100111001110010100001000111111001111000100001001000100010010010100101001001010010011010100101101000111010001100100101001001100010010100100110001010000010111100110100101101011011001100110100001100010011001000110110101101100 $"
b10101 $(
#601
b10101 "
b100001100101011001000100010110101000010010101100101010001000100001111100011111001000010010001110100101001001010010011110100100101000001001110100011110000111101001111010100010101001000010100110101010101010101010111110110100101010111010001110100100101000101 $"
b10110 $(
#602
b10110 "
b11110100101001001100110100101101011111011010000101110001000110001110100011101100111101010000110100100101001011010011110100110101000100001111010011011000110100001110100011111001000010010010110101001001010011010101110110000101001000001101000010111100101010 $"
b10111 $(
#603
b10111 "
b11010100101010010010000110011001110000011000000101010101000111001111000011101000111010001111110100010101001100010011110101001001001100010010010100000000111110010001000100110001001100010101010110000001100100010110110101010100111101001010110010011100100010 $"
b11000 $(
#604
b11000 "
b10100100101001010100100110110001101010010100110100110001001000001111110011101000111000001110100100000001001011010011010101010001010011010100010100111001001100010011010101010101011000011000110111000101110101010111110100011000110000001001010010010000100010 $"
b11001 $(
#605
b11001 "
b1111000100011010011000110010001010111010011010100100101000111010000000011110000110111001110000011110001000101010010000101000101010101010110000101100001010110010101000101010101011110011001110111001101110101010110000011011100101000000111110010001000100010 $"
b11010 $(
#606
b11010 "
b1011100010111001110100101101101010100010011100100110001000111010000010011101100110110001101010011100000111111010000110100100101001111010110110101111001011100010110000101101101100010011011010111010001110011010100110011000100100001000111110010000100100000 $"
b11011 $(
#607
b11011 "
b1001000001111001010010100111101011010010101010101000101001010010000100011101000111000001101010011010100111000001110010011110101000011010101000101101001011110010111000101110101100011011010110111001101110001010100000010110100011111000111110010000000011111 $"
b11100 $(
#608
b11100 "
b1000000001111000110010011110101100000011000000101011101001101010000110011110000111011001110000011010100110101001101010011010100110111010001000100110001010101010101010101001101011010011001000110111001101011010010000010100000011111000111100001111000011110 $"
b11101 $(
#609
b11101 "
b1001100010100000100100010110101011000011001000101111001010000010001000011111000111110001111000011100100110111001101010011001100110010001110000011111101000111010001110100100001001111010111000110010101100111010000010010010000011101000111100001110100011110 $"
b11110 $(
#610
b11110 "
b1010000010111000100000001110100111111010111010110000001001110010000010011111100111111001111100011110000111001001101100011010000110011001101000011101101000010010000100100101101010000010101100101101101011011001101110001111100011100000111100001111000011110 $"
b11111 $(
#611
b11111 "
b1010000010101000011100001001000100011010001100101010101001101010000100011111100111110001111110100000000111011001101110011010100110100001101110011111101001000010010100101001101010010010011100100101001000000001010010001110000011100000111100001111000011101 $"
b100000 $(
b10 D(
#612
b100000 "
b0 $"
b10 I(
#613
b11 D(
#614
b11 I(
#615
b100 D(
#616
b101 D(
b100 I(
#617
b110 D(
b101 I(
#618
b111 D(
b110 I(
#619
b10 D(
b111 I(
#620
b11111111100 u'
b11 D(
b10 I(
#621
b100 D(
b11 I(
#622
b101 D(
b100 I(
#623
b110 D(
b101 I(
#624
b111 D(
b110 I(
#625
b10 D(
b111 I(
#626
b1011100001010 ['
b11 D(
b10 I(
#627
b100 D(
b11 I(
#628
b101 D(
b100 I(
#629
b110 D(
b101 I(
#630
b111 D(
b110 I(
#631
b10 D(
b111 I(
#632
b1000000100011 h'
b11 D(
b10 I(
#633
b100 D(
b11 I(
#634
b101 D(
b100 I(
#635
b110 D(
b101 I(
#636
b111 D(
b110 I(
#637
b1000 D(
b111 I(
#638
b110111001101 N'
b1001 D(
b1000 I(
#639
b11110011110110 B
b0 $(
b0 D(
b1001 I(
#640
b0 b
b1 $(
b0 I(
#641
b0 "
b0 $(
#642
b110010101101001011001100100111100111000001011010011001000111000001110110011111001000101010100100101101101100010011001000110010001100011011001110111000101111101011111100111111001111110011111100111111110000100100010101000101110000111100001000111110001100010 $"
#717
b1110111011101110111011101110111011101101111011011110110111101110111011101110111111101111111011101110111011101110111011111110111111101111111011111110111111101111111011111111000011110000111011111110111111101111111011111110111111110000111100001111000011110000 h$
#753
b1110111011101110111011101110111011101101111011011110110111101110111011101110111111101111111011101110111011101110111011111110111111101111111011111110111111101111111100001111000011110000111100001110111111101111111011111110111111110000111100001111000011110000 h$
#794
b1110111011101110111011101110111011101101111011011110110111101110111011101110111111101111111011101110111111101111111011111110111111101111111011111110111111101111111100001111000011110000111100001110111111101111111011111110111111110000111100001111000011110000 h$
#812
b1110111011101110111011101110111011101101111011011110110111101110111011101110111111110000111100001110111111101111111011111110111111101111111011111110111111101111111100001111000011110000111100001110111111101111111011111110111111110000111100001111000011110000 h$
#830
b1110111011101110111011101110111011101110111011011110110111101101111011101110111111110000111100001110111111101111111011111110111111101111111011111110111111101111111100001111000011110000111100001110111111101111111011111110111111110000111100001111000011110000 h$
#848
b1110111011101110111011101111000011101110111011011110110111101101111011101110111111110000111100001110111111101111111011111110111111101111111011111110111111101111111100001111000011110000111100001110111111101111111011111110111111110000111100001111000011110000 h$
#867
b1 b
b1 D(
#868
b1 $(
b1 I(
#869
b1 "
b110011001101000011010000101001000111001001010100010111100110101001110000011101001000011010011110101100001100010011000110110001101100010011010000111000001110111011101110111100001111001011110100111101101111011100000101000010110000011100000100111101101100000 $"
b10 $(
#870
b10 "
b101110001100100011001000101001100111011001011000010101100110000001101010011011100111111010011000101010101011101011000000110000001100000011000000110100001110011011110000111001101110011011100110111001101111101011111100111110101111101011111010111101101011011 $"
b11 $(
#871
b11 "
b101010101100001011000010101000100111100001100000010110000101110001101010011100101000000010010100101001001011011010111010101111001011111011001000110101001110110011111000111101101111011011110110111110010000000100000011000001010000010011110010111100101011001 $"
b100 $(
#872
b100 "
b101000001100001010110110100101000111101001101110011001000110001001101100011111001000100010011000101001001011000010111000110000001100001011010000110110001110110011111111000010010000100100001011000010110000111100001111000011110000111100000010111100101010011 $"
b101 $(
#873
b101 "
b100110101100110010110110100011000111101001110110011011100110100001110010100010001000111010011100101001101011010010111010110001001100100011001100110100101110001011110111000011010000110100001101000011010000110100001011000011010000110100011000111110001001101 $"
b110 $(
#874
b110 "
b100100001100000010111010011111100111011010000010011101000110111001111010100010101001011010100010101100101011111011000010110010001100101011001010110011101101010011100100111110110000100100001101000001101111110100000011000000110000010100001011000000101010001 $"
b111 $(
