midterm/.Xil/Vivado-224-shlab_81-PC/hw_ila_data_1/zip_work/waveform.vcd
$date
        2018-Apr-27 13:32:05
$end
$version
        Vivado v2017.2 (64-bit)
$end
$timescale
        1ps
$end
$scope module dut $end
$var reg 32 " midterm_i/matrix_multiplication_0/inst/matrix_multiplication_v1_0_S00_AXI_inst/slv_reg2 [31:0] $end
$var reg 32 B midterm_i/matrix_multiplication_0/inst/matrix_multiplication_v1_0_S00_AXI_inst/slv_reg0 [31:0] $end
$var reg 8 b midterm_i/matrix_multiplication_0/inst/matrix_multiplication_v1_0_S00_AXI_inst/ansy [7:0] $end
$var reg 32 j midterm_i/matrix_multiplication_0/inst/matrix_multiplication_v1_0_S00_AXI_inst/slv_reg3 [31:0] $end
$var reg 5 ," midterm_i/matrix_multiplication_0/inst/matrix_multiplication_v1_0_S00_AXI_inst/P_next [4:0] $end
$var reg 32 1" midterm_i/matrix_multiplication_0/inst/matrix_multiplication_v1_0_S00_AXI_inst/slv_reg1 [31:0] $end
$var reg 32 Q" midterm_i/matrix_multiplication_0/inst/matrix_multiplication_v1_0_S00_AXI_inst/slv_reg4 [31:0] $end
$var reg 8 q" midterm_i/matrix_multiplication_0/inst/matrix_multiplication_v1_0_S00_AXI_inst/ansx [7:0] $end
$var reg 32 y" midterm_i/matrix_multiplication_0/inst/matrix_multiplication_v1_0_S00_AXI_inst/slv_reg5 [31:0] $end
$var reg 5 ;# midterm_i/matrix_multiplication_0/inst/matrix_multiplication_v1_0_S00_AXI_inst/P [4:0] $end
$var reg 1 @# _TRIGGER $end
$var reg 1 A# _WINDOW $end
$var reg 1 B# _GAP $end
$upscope $end
$enddefinitions $end
#0
$dumpvars
b1 "
b1 B
b0 b
b0 j
b1 ,"
b10 1"
b0 Q"
b0 q"
b0 y"
b0 ;#
1@#
1A#
0B#
$end
#1
b100 ,"
b1 ;#
#2
b110010 b
b101 ,"
b10000101 q"
b100 ;#
#3
b110000101 j
b0 ,"
b100110010 Q"
b1 y"
b101 ;#
#4
b0 b
b1 ,"
b0 q"
b0 ;#
#5
b100 ,"
b1 ;#
#6
b110010 b
b101 ,"
b10000101 q"
b100 ;#
#7
b0 ,"
b101 ;#
#8
b0 b
b1 ,"
b0 q"
b0 ;#
#9
b100 ,"
b1 ;#
#10
b110010 b
b101 ,"
b10000101 q"
b100 ;#
#11
b0 ,"
b101 ;#
#12
b0 b
b1 ,"
b0 q"
b0 ;#
#13
b100 ,"
b1 ;#
#14
b110010 b
b101 ,"
b10000101 q"
b100 ;#
#15
b0 ,"
b101 ;#
#16
b0 b
b1 ,"
b0 q"
b0 ;#
#17
b100 ,"
b1 ;#
#18
b110010 b
b101 ,"
b10000101 q"
b100 ;#
#19
b0 ,"
b101 ;#
#20
b0 b
b1 ,"
b0 q"
b0 ;#
#21
b100 ,"
b1 ;#
#22
b110010 b
b101 ,"
b10000101 q"
b100 ;#
#23
b0 ,"
b101 ;#
#24
b0 b
b1 ,"
b0 q"
b0 ;#
#25
b100 ,"
b1 ;#
#26
b110010 b
b101 ,"
b10000101 q"
b100 ;#
#27
b0 ,"
b101 ;#
#28
b0 b
b1 ,"
b0 q"
b0 ;#
#29
b100 ,"
b1 ;#
#30
b110010 b
b101 ,"
b10000101 q"
b100 ;#
#31
b0 ,"
b101 ;#
#32
b0 b
b1 ,"
b0 q"
b0 ;#
#33
b100 ,"
b1 ;#
#34
b110010 b
b101 ,"
b10000101 q"
b100 ;#
#35
b0 ,"
b101 ;#
#36
b0 b
b1 ,"
b0 q"
b0 ;#
#37
b100 ,"
b1 ;#
#38
b110010 b
b101 ,"
b10000101 q"
b100 ;#
#39
b0 ,"
b101 ;#
#40
b0 b
b1 ,"
b0 q"
b0 ;#
#41
b100 ,"
b1 ;#
#42
b110010 b
b101 ,"
b10000101 q"
b100 ;#
#43
b0 ,"
b101 ;#
#44
b0 b
b1 ,"
b0 q"
b0 ;#
#45
b100 ,"
b1 ;#
#46
b110010 b
b101 ,"
b10000101 q"
b100 ;#
#47
b0 ,"
b101 ;#
#48
b0 b
b1 ,"
b0 q"
b0 ;#
#49
b100 ,"
b1 ;#
#50
b110010 b
b101 ,"
b10000101 q"
b100 ;#
#51
b0 ,"
b101 ;#
#52
b0 b
b1 ,"
b0 q"
b0 ;#
#53
b100 ,"
b1 ;#
#54
b110010 b
b101 ,"
b10000101 q"
b100 ;#
#55
b0 ,"
b101 ;#
#56
b0 b
b1 ,"
b0 q"
b0 ;#
#57
b100 ,"
b1 ;#
#58
b110010 b
b101 ,"
b10000101 q"
b100 ;#
#59
b0 ,"
b101 ;#
#60
b0 b
b1 ,"
b0 q"
b0 ;#
#61
b100 ,"
b1 ;#
#62
b110010 b
b101 ,"
b10000101 q"
b100 ;#
#63
b0 ,"
b101 ;#
#64
b0 b
b1 ,"
b0 q"
b0 ;#
#65
b100 ,"
b1 ;#
#66
b110010 b
b101 ,"
b10000101 q"
b100 ;#
#67
b0 ,"
b101 ;#
#68
b0 b
b1 ,"
b0 q"
b0 ;#
#69
b100 ,"
b1 ;#
#70
b110010 b
b101 ,"
b10000101 q"
b100 ;#
#71
b0 ,"
b101 ;#
#72
b0 b
b1 ,"
b0 q"
b0 ;#
#73
b100 ,"
b1 ;#
#74
b110010 b
b101 ,"
b10000101 q"
b100 ;#
#75
b0 ,"
b101 ;#
#76
b0 b
b1 ,"
b0 q"
b0 ;#
#77
b100 ,"
b1 ;#
#78
b110010 b
b101 ,"
b10000101 q"
b100 ;#
#79
b0 ,"
b101 ;#
#80
b0 b
b1 ,"
b0 q"
b0 ;#
#81
b100 ,"
b1 ;#
#82
b110010 b
b101 ,"
b10000101 q"
b100 ;#
#83
b0 ,"
b101 ;#
#84
b0 b
b1 ,"
b0 q"
b0 ;#
#85
b100 ,"
b1 ;#
#86
b110010 b
b101 ,"
b10000101 q"
b100 ;#
#87
b0 ,"
b101 ;#
#88
b0 b
b1 ,"
b0 q"
b0 ;#
#89
b100 ,"
b1 ;#
#90
b110010 b
b101 ,"
b10000101 q"
b100 ;#
#91
b0 ,"
b101 ;#
#92
b0 b
b1 ,"
b0 q"
b0 ;#
#93
b100 ,"
b1 ;#
#94
b110010 b
b101 ,"
b10000101 q"
b100 ;#
#95
b0 ,"
b101 ;#
#96
b0 b
b1 ,"
b0 q"
b0 ;#
#97
b100 ,"
b1 ;#
#98
b110010 b
b101 ,"
b10000101 q"
b100 ;#
#99
b0 ,"
b101 ;#
#100
b0 b
b1 ,"
b0 q"
b0 ;#
#101
b100 ,"
b1 ;#
#102
b110010 b
b101 ,"
b10000101 q"
b100 ;#
#103
b0 ,"
b101 ;#
#104
b0 b
b1 ,"
b0 q"
b0 ;#
#105
b100 ,"
b1 ;#
#106
b110010 b
b101 ,"
b10000101 q"
b100 ;#
#107
b0 ,"
b101 ;#
#108
b0 b
b1 ,"
b0 q"
b0 ;#
#109
b100 ,"
b1 ;#
#110
b110010 b
b101 ,"
b10000101 q"
b100 ;#
#111
b0 ,"
b101 ;#
#112
b0 b
b1 ,"
b0 q"
b0 ;#
#113
b100 ,"
b1 ;#
#114
b110010 b
b101 ,"
b10000101 q"
b100 ;#
#115
b0 ,"
b101 ;#
#116
b0 b
b1 ,"
b0 q"
b0 ;#
#117
b100 ,"
b1 ;#
#118
b110010 b
b101 ,"
b10000101 q"
b100 ;#
#119
b0 ,"
b101 ;#
#120
b0 b
b1 ,"
b0 q"
b0 ;#
#121
b100 ,"
b1 ;#
#122
b110010 b
b101 ,"
b10000101 q"
b100 ;#
#123
b0 ,"
b101 ;#
#124
b0 b
b1 ,"
b0 q"
b0 ;#
#125
b100 ,"
b1 ;#
#126
b110010 b
b101 ,"
b10000101 q"
b100 ;#
#127
b0 ,"
b101 ;#
#128
b0 b
b1 ,"
b0 q"
b0 ;#
#129
b100 ,"
b1 ;#
#130
b110010 b
b101 ,"
b10000101 q"
b100 ;#
#131
b0 ,"
b101 ;#
#132
b0 b
b1 ,"
b0 q"
b0 ;#
#133
b100 ,"
b1 ;#
#134
b110010 b
b101 ,"
b10000101 q"
b100 ;#
#135
b0 ,"
b101 ;#
#136
b0 b
b1 ,"
b0 q"
b0 ;#
#137
b100 ,"
b1 ;#
#138
b110010 b
b101 ,"
b10000101 q"
b100 ;#
#139
b0 ,"
b101 ;#
#140
b0 b
b1 ,"
b0 q"
b0 ;#
#141
b100 ,"
b1 ;#
#142
b110010 b
b101 ,"
b10000101 q"
b100 ;#
#143
b0 ,"
b101 ;#
#144
b0 b
b1 ,"
b0 q"
b0 ;#
#145
b100 ,"
b1 ;#
#146
b110010 b
b101 ,"
b10000101 q"
b100 ;#
#147
b0 ,"
b101 ;#
#148
b0 b
b1 ,"
b0 q"
b0 ;#
#149
b100 ,"
b1 ;#
#150
b110010 b
b101 ,"
b10000101 q"
b100 ;#
#151
b0 ,"
b101 ;#
#152
b0 b
b1 ,"
b0 q"
b0 ;#
#153
b100 ,"
b1 ;#
#154
b110010 b
b101 ,"
b10000101 q"
b100 ;#
#155
b0 ,"
b101 ;#
#156
b0 b
b1 ,"
b0 q"
b0 ;#
#157
b100 ,"
b1 ;#
#158
b110010 b
b101 ,"
b10000101 q"
b100 ;#
#159
b0 ,"
b101 ;#
#160
b0 b
b1 ,"
b0 q"
b0 ;#
#161
b100 ,"
b1 ;#
#162
b110010 b
b101 ,"
b10000101 q"
b100 ;#
#163
b0 ,"
b101 ;#
#164
b0 b
b1 ,"
b0 q"
b0 ;#
#165
b100 ,"
b1 ;#
#166
b110010 b
b101 ,"
b10000101 q"
b100 ;#
#167
b0 ,"
b101 ;#
#168
b0 b
b1 ,"
b0 q"
b0 ;#
#169
b100 ,"
b1 ;#
#170
b110010 b
b101 ,"
b10000101 q"
b100 ;#
#171
b0 ,"
b101 ;#
#172
b0 b
b1 ,"
b0 q"
b0 ;#
#173
b100 ,"
b1 ;#
#174
b110010 b
b101 ,"
b10000101 q"
b100 ;#
#175
b0 ,"
b101 ;#
#176
b0 b
b1 ,"
b0 q"
b0 ;#
#177
b100 ,"
b1 ;#
#178
b110010 b
b101 ,"
b10000101 q"
b100 ;#
#179
b0 ,"
b101 ;#
#180
b0 b
b1 ,"
b0 q"
b0 ;#
#181
b100 ,"
b1 ;#
#182
b110010 b
b101 ,"
b10000101 q"
b100 ;#
#183
b0 ,"
b101 ;#
#184
b0 b
b1 ,"
b0 q"
b0 ;#
#185
b100 ,"
b1 ;#
#186
b110010 b
b101 ,"
b10000101 q"
b100 ;#
#187
b0 ,"
b101 ;#
#188
b0 b
b1 ,"
b0 q"
b0 ;#
#189
b100 ,"
b1 ;#
#190
b110010 b
b101 ,"
b10000101 q"
b100 ;#
#191
b0 ,"
b101 ;#
#192
b0 b
b1 ,"
b0 q"
b0 ;#
#193
b100 ,"
b1 ;#
#194
b110010 b
b101 ,"
b10000101 q"
b100 ;#
#195
b0 ,"
b101 ;#
#196
b0 b
b1 ,"
b0 q"
b0 ;#
#197
b100 ,"
b1 ;#
#198
b110010 b
b101 ,"
b10000101 q"
b100 ;#
#199
b0 ,"
b101 ;#
#200
b0 b
b1 ,"
b0 q"
b0 ;#
#201
b100 ,"
b1 ;#
#202
b110010 b
b101 ,"
b10000101 q"
b100 ;#
#203
b0 ,"
b101 ;#
#204
b0 b
b1 ,"
b0 q"
b0 ;#
#205
b100 ,"
b1 ;#
#206
b110010 b
b101 ,"
b10000101 q"
b100 ;#
#207
b0 ,"
b101 ;#
#208
b0 b
b1 ,"
b0 q"
b0 ;#
#209
b100 ,"
b1 ;#
#210
b110010 b
b101 ,"
b10000101 q"
b100 ;#
#211
b0 ,"
b101 ;#
#212
b0 b
b1 ,"
b0 q"
b0 ;#
#213
b100 ,"
b1 ;#
#214
b110010 b
b101 ,"
b10000101 q"
b100 ;#
#215
b0 ,"
b101 ;#
#216
b0 b
b1 ,"
b0 q"
b0 ;#
#217
b100 ,"
b1 ;#
#218
b110010 b
b101 ,"
b10000101 q"
b100 ;#
#219
b0 ,"
b101 ;#
#220
b0 b
b1 ,"
b0 q"
b0 ;#
#221
b100 ,"
b1 ;#
#222
b110010 b
b101 ,"
b10000101 q"
b100 ;#
#223
b0 ,"
b101 ;#
#224
b0 b
b1 ,"
b0 q"
b0 ;#
#225
b100 ,"
b1 ;#
#226
b110010 b
b101 ,"
b10000101 q"
b100 ;#
#227
b0 ,"
b101 ;#
#228
b0 b
b1 ,"
b0 q"
b0 ;#
#229
b100 ,"
b1 ;#
#230
b110010 b
b101 ,"
b10000101 q"
b100 ;#
#231
b0 ,"
b101 ;#
#232
b0 b
b1 ,"
b0 q"
b0 ;#
#233
b100 ,"
b1 ;#
#234
b110010 b
b101 ,"
b10000101 q"
b100 ;#
#235
b0 ,"
b101 ;#
#236
b0 b
b1 ,"
b0 q"
b0 ;#
#237
b100 ,"
b1 ;#
#238
b110010 b
b101 ,"
b10000101 q"
b100 ;#
#239
b0 ,"
b101 ;#
#240
b0 b
b1 ,"
b0 q"
b0 ;#
#241
b100 ,"
b1 ;#
#242
b110010 b
b101 ,"
b10000101 q"
b100 ;#
#243
b0 ,"
b101 ;#
#244
b0 b
b1 ,"
b0 q"
b0 ;#
#245
b100 ,"
b1 ;#
#246
b110010 b
b101 ,"
b10000101 q"
b100 ;#
#247
b0 ,"
b101 ;#
#248
b0 b
b1 ,"
b0 q"
b0 ;#
#249
b100 ,"
b1 ;#
#250
b110010 b
b101 ,"
b10000101 q"
b100 ;#
#251
b0 ,"
b101 ;#
#252
b0 b
b1 ,"
b0 q"
b0 ;#
#253
b100 ,"
b1 ;#
#254
b110010 b
b101 ,"
b10000101 q"
b100 ;#
#255
b0 ,"
b101 ;#
#256
b0 b
b1 ,"
b0 q"
b0 ;#
#257
b100 ,"
b1 ;#
#258
b110010 b
b101 ,"
b10000101 q"
b100 ;#
#259
b0 ,"
b101 ;#
#260
b0 b
b1 ,"
b0 q"
b0 ;#
#261
b100 ,"
b1 ;#
#262
b110010 b
b101 ,"
b10000101 q"
b100 ;#
#263
b0 ,"
b101 ;#
#264
b0 b
b1 ,"
b0 q"
b0 ;#
#265
b100 ,"
b1 ;#
#266
b110010 b
b101 ,"
b10000101 q"
b100 ;#
#267
b0 ,"
b101 ;#
#268
b0 b
b1 ,"
b0 q"
b0 ;#
#269
b100 ,"
b1 ;#
#270
b110010 b
b101 ,"
b10000101 q"
b100 ;#
#271
b0 ,"
b101 ;#
#272
b0 b
b1 ,"
b0 q"
b0 ;#
#273
b100 ,"
b1 ;#
#274
b110010 b
b101 ,"
b10000101 q"
b100 ;#
#275
b0 ,"
b101 ;#
#276
b0 b
b1 ,"
b0 q"
b0 ;#
#277
b100 ,"
b1 ;#
#278
b110010 b
b101 ,"
b10000101 q"
b100 ;#
#279
b0 ,"
b101 ;#
#280
b0 b
b1 ,"
b0 q"
b0 ;#
#281
b100 ,"
b1 ;#
#282
b110010 b
b101 ,"
b10000101 q"
b100 ;#
#283
b0 ,"
b101 ;#
#284
b0 b
b1 ,"
b0 q"
b0 ;#
#285
b100 ,"
b1 ;#
#286
b110010 b
b101 ,"
b10000101 q"
b100 ;#
#287
b0 ,"
b101 ;#
#288
b0 b
b1 ,"
b0 q"
b0 ;#
#289
b100 ,"
b1 ;#
#290
b110010 b
b101 ,"
b10000101 q"
b100 ;#
#291
b0 ,"
b101 ;#
#292
b0 b
b1 ,"
b0 q"
b0 ;#
#293
b100 ,"
b1 ;#
#294
b110010 b
b101 ,"
b10000101 q"
b100 ;#
#295
b0 ,"
b101 ;#
#296
b0 b
b1 ,"
b0 q"
b0 ;#
#297
b100 ,"
b1 ;#
#298
b110010 b
b101 ,"
b10000101 q"
b100 ;#
#299
b0 ,"
b101 ;#
#300
b0 b
b1 ,"
b0 q"
b0 ;#
#301
b100 ,"
b1 ;#
#302
b110010 b
b101 ,"
b10000101 q"
b100 ;#
#303
b0 ,"
b101 ;#
#304
b0 b
b1 ,"
b0 q"
b0 ;#
#305
b100 ,"
b1 ;#
#306
b110010 b
b101 ,"
b10000101 q"
b100 ;#
#307
b0 ,"
b101 ;#
#308
b0 b
b1 ,"
b0 q"
b0 ;#
#309
b100 ,"
b1 ;#
#310
b110010 b
b101 ,"
b10000101 q"
b100 ;#
#311
b0 ,"
b101 ;#
#312
b0 b
b1 ,"
b0 q"
b0 ;#
#313
b100 ,"
b1 ;#
#314
b110010 b
b101 ,"
b10000101 q"
b100 ;#
#315
b0 ,"
b101 ;#
#316
b0 b
b1 ,"
b0 q"
b0 ;#
#317
b100 ,"
b1 ;#
#318
b110010 b
b101 ,"
b10000101 q"
b100 ;#
#319
b0 ,"
b101 ;#
#320
b0 b
b1 ,"
b0 q"
b0 ;#
#321
b100 ,"
b1 ;#
#322
b110010 b
b101 ,"
b10000101 q"
b100 ;#
#323
b0 ,"
b101 ;#
#324
b0 b
b1 ,"
b0 q"
b0 ;#
#325
b100 ,"
b1 ;#
#326
b110010 b
b101 ,"
b10000101 q"
b100 ;#
#327
b0 ,"
b101 ;#
#328
b0 b
b1 ,"
b0 q"
b0 ;#
#329
b100 ,"
b1 ;#
#330
b110010 b
b101 ,"
b10000101 q"
b100 ;#
#331
b0 ,"
b101 ;#
#332
b0 b
b1 ,"
b0 q"
b0 ;#
#333
b100 ,"
b1 ;#
#334
b110010 b
b101 ,"
b10000101 q"
b100 ;#
#335
b0 ,"
b101 ;#
#336
b0 b
b1 ,"
b0 q"
b0 ;#
#337
b100 ,"
b1 ;#
#338
b110010 b
b101 ,"
b10000101 q"
b100 ;#
#339
b0 ,"
b101 ;#
#340
b0 b
b1 ,"
b0 q"
b0 ;#
#341
b100 ,"
b1 ;#
#342
b110010 b
b101 ,"
b10000101 q"
b100 ;#
#343
b0 ,"
b101 ;#
#344
b0 b
b1 ,"
b0 q"
b0 ;#
#345
b100 ,"
b1 ;#
#346
b110010 b
b101 ,"
b10000101 q"
b100 ;#
#347
b0 ,"
b101 ;#
#348
b0 b
b1 ,"
b0 q"
b0 ;#
#349
b100 ,"
b1 ;#
#350
b110010 b
b101 ,"
b10000101 q"
b100 ;#
#351
b0 ,"
b101 ;#
#352
b0 b
b1 ,"
b0 q"
b0 ;#
#353
b100 ,"
b1 ;#
#354
b110010 b
b101 ,"
b10000101 q"
b100 ;#
#355
b0 ,"
b101 ;#
#356
b0 b
b1 ,"
b0 q"
b0 ;#
#357
b100 ,"
b1 ;#
#358
b110010 b
b101 ,"
b10000101 q"
b100 ;#
#359
b0 ,"
b101 ;#
#360
b0 b
b1 ,"
b0 q"
b0 ;#
#361
b100 ,"
b1 ;#
#362
b110010 b
b101 ,"
b10000101 q"
b100 ;#
#363
b0 ,"
b101 ;#
#364
b0 b
b1 ,"
b0 q"
b0 ;#
#365
b100 ,"
b1 ;#
#366
b110010 b
b101 ,"
b10000101 q"
b100 ;#
#367
b0 ,"
b101 ;#
#368
b0 b
b1 ,"
b0 q"
b0 ;#
#369
b100 ,"
b1 ;#
#370
b110010 b
b101 ,"
b10000101 q"
b100 ;#
#371
b0 ,"
b101 ;#
#372
b0 b
b1 ,"
b0 q"
b0 ;#
#373
b100 ,"
b1 ;#
#374
b110010 b
b101 ,"
b10000101 q"
b100 ;#
#375
b0 ,"
b101 ;#
#376
b0 b
b1 ,"
b0 q"
b0 ;#
#377
b100 ,"
b1 ;#
#378
b110010 b
b101 ,"
b10000101 q"
b100 ;#
#379
b0 ,"
b101 ;#
#380
b0 b
b1 ,"
b0 q"
b0 ;#
#381
b100 ,"
b1 ;#
#382
b110010 b
b101 ,"
b10000101 q"
b100 ;#
#383
b0 ,"
b101 ;#
#384
b0 b
b1 ,"
b0 q"
b0 ;#
#385
b100 ,"
b1 ;#
#386
b110010 b
b101 ,"
b10000101 q"
b100 ;#
#387
b0 ,"
b101 ;#
#388
b0 b
b1 ,"
b0 q"
b0 ;#
#389
b100 ,"
b1 ;#
#390
b110010 b
b101 ,"
b10000101 q"
b100 ;#
#391
b0 ,"
b101 ;#
#392
b0 b
b1 ,"
b0 q"
b0 ;#
#393
b100 ,"
b1 ;#
#394
b110010 b
b101 ,"
b10000101 q"
b100 ;#
#395
b0 ,"
b101 ;#
#396
b0 b
b1 ,"
b0 q"
b0 ;#
#397
b100 ,"
b1 ;#
#398
b110010 b
b101 ,"
b10000101 q"
b100 ;#
#399
b0 ,"
b101 ;#
#400
b0 b
b1 ,"
b0 q"
b0 ;#
#401
b100 ,"
b1 ;#
#402
b110010 b
b101 ,"
b10000101 q"
b100 ;#
#403
b0 ,"
b101 ;#
#404
b0 b
b1 ,"
b0 q"
b0 ;#
#405
b100 ,"
b1 ;#
#406
b110010 b
b101 ,"
b10000101 q"
b100 ;#
#407
b0 ,"
b101 ;#
#408
b0 b
b1 ,"
b0 q"
b0 ;#
#409
b100 ,"
b1 ;#
#410
b110010 b
b101 ,"
b10000101 q"
b100 ;#
#411
b0 ,"
b101 ;#
#412
b0 b
b1 ,"
b0 q"
b0 ;#
#413
b100 ,"
b1 ;#
#414
b110010 b
b101 ,"
b10000101 q"
b100 ;#
#415
b0 ,"
b101 ;#
#416
b0 b
b1 ,"
b0 q"
b0 ;#
#417
b100 ,"
b1 ;#
#418
b110010 b
b101 ,"
b10000101 q"
b100 ;#
#419
b0 ,"
b101 ;#
#420
b0 b
b1 ,"
b0 q"
b0 ;#
#421
b100 ,"
b1 ;#
#422
b110010 b
b101 ,"
b10000101 q"
b100 ;#
#423
b0 ,"
b101 ;#
#424
b0 b
b1 ,"
b0 q"
b0 ;#
#425
b100 ,"
b1 ;#
#426
b110010 b
b101 ,"
b10000101 q"
b100 ;#
#427
b0 ,"
b101 ;#
#428
b0 b
b1 ,"
b0 q"
b0 ;#
#429
b100 ,"
b1 ;#
#430
b110010 b
b101 ,"
b10000101 q"
b100 ;#
#431
b0 ,"
b101 ;#
#432
b0 b
b1 ,"
b0 q"
b0 ;#
#433
b100 ,"
b1 ;#
#434
b110010 b
b101 ,"
b10000101 q"
b100 ;#
#435
b0 ,"
b101 ;#
#436
b0 b
b1 ,"
b0 q"
b0 ;#
#437
b100 ,"
b1 ;#
#438
b110010 b
b101 ,"
b10000101 q"
b100 ;#
#439
b0 ,"
b101 ;#
#440
b0 b
b1 ,"
b0 q"
b0 ;#
#441
b100 ,"
b1 ;#
#442
b110010 b
b101 ,"
b10000101 q"
b100 ;#
#443
b0 ,"
b101 ;#
#444
b0 b
b1 ,"
b0 q"
b0 ;#
#445
b100 ,"
b1 ;#
#446
b110010 b
b101 ,"
b10000101 q"
b100 ;#
#447
b0 ,"
b101 ;#
#448
b0 b
b1 ,"
b0 q"
b0 ;#
#449
b100 ,"
b1 ;#
#450
b110010 b
b101 ,"
b10000101 q"
b100 ;#
#451
b0 ,"
b101 ;#
#452
b0 b
b1 ,"
b0 q"
b0 ;#
#453
b100 ,"
b1 ;#
#454
b110010 b
b101 ,"
b10000101 q"
b100 ;#
#455
b0 ,"
b101 ;#
#456
b0 b
b1 ,"
b0 q"
b0 ;#
#457
b100 ,"
b1 ;#
#458
b110010 b
b101 ,"
b10000101 q"
b100 ;#
#459
b0 ,"
b101 ;#
#460
b0 b
b1 ,"
b0 q"
b0 ;#
#461
b100 ,"
b1 ;#
#462
b110010 b
b101 ,"
b10000101 q"
b100 ;#
#463
b0 ,"
b101 ;#
#464
b0 b
b1 ,"
b0 q"
b0 ;#
#465
b100 ,"
b1 ;#
#466
b110010 b
b101 ,"
b10000101 q"
b100 ;#
#467
b0 ,"
b101 ;#
#468
b0 b
b1 ,"
b0 q"
b0 ;#
#469
b100 ,"
b1 ;#
#470
b110010 b
b101 ,"
b10000101 q"
b100 ;#
#471
b0 ,"
b101 ;#
#472
b0 b
b1 ,"
b0 q"
b0 ;#
#473
b100 ,"
b1 ;#
#474
b110010 b
b101 ,"
b10000101 q"
b100 ;#
#475
b0 ,"
b101 ;#
#476
b0 b
b1 ,"
b0 q"
b0 ;#
#477
b100 ,"
b1 ;#
#478
b110010 b
b101 ,"
b10000101 q"
b100 ;#
#479
b0 ,"
b101 ;#
#480
b0 b
b1 ,"
b0 q"
b0 ;#
#481
b100 ,"
b1 ;#
#482
b110010 b
b101 ,"
b10000101 q"
b100 ;#
#483
b0 ,"
b101 ;#
#484
b0 b
b1 ,"
b0 q"
b0 ;#
#485
b100 ,"
b1 ;#
#486
b110010 b
b101 ,"
b10000101 q"
b100 ;#
#487
b0 ,"
b101 ;#
#488
b0 b
b1 ,"
b0 q"
b0 ;#
#489
b100 ,"
b1 ;#
#490
b110010 b
b101 ,"
b10000101 q"
b100 ;#
#491
b0 ,"
b101 ;#
#492
b0 b
b1 ,"
b0 q"
b0 ;#
#493
b100 ,"
b1 ;#
#494
b110010 b
b101 ,"
b10000101 q"
b100 ;#
#495
b0 ,"
b101 ;#
#496
b0 b
b1 ,"
b0 q"
b0 ;#
#497
b100 ,"
b1 ;#
#498
b110010 b
b101 ,"
b10000101 q"
b100 ;#
#499
b0 ,"
b101 ;#
#500
b0 b
b1 ,"
b0 q"
b0 ;#
#501
b100 ,"
b1 ;#
#502
b110010 b
b101 ,"
b10000101 q"
b100 ;#
#503
b0 ,"
b101 ;#
#504
b0 b
b1 ,"
b0 q"
b0 ;#
#505
b100 ,"
b1 ;#
#506
b110010 b
b101 ,"
b10000101 q"
b100 ;#
#507
b0 ,"
b101 ;#
#508
b0 b
b1 ,"
b0 q"
b0 ;#
#509
b100 ,"
b1 ;#
#510
b110010 b
b101 ,"
b10000101 q"
b100 ;#
#511
b0 ,"
b101 ;#
#512
b0 b
b1 ,"
b0 q"
b0 ;#
#513
b100 ,"
b1 ;#
#514
b110010 b
b101 ,"
b10000101 q"
b100 ;#
#515
b0 ,"
b101 ;#
#516
b0 b
b1 ,"
b0 q"
b0 ;#
#517
b100 ,"
b1 ;#
#518
b110010 b
b101 ,"
b10000101 q"
b100 ;#
#519
b0 ,"
b101 ;#
#520
b0 b
b1 ,"
b0 q"
b0 ;#
#521
b100 ,"
b1 ;#
#522
b110010 b
b101 ,"
b10000101 q"
b100 ;#
#523
b0 ,"
b101 ;#
#524
b0 b
b1 ,"
b0 q"
b0 ;#
#525
b100 ,"
b1 ;#
#526
b110010 b
b101 ,"
b10000101 q"
b100 ;#
#527
b0 ,"
b101 ;#
#528
b0 b
b1 ,"
b0 q"
b0 ;#
#529
b100 ,"
b1 ;#
#530
b110010 b
b101 ,"
b10000101 q"
b100 ;#
#531
b0 ,"
b101 ;#
#532
b0 b
b1 ,"
b0 q"
b0 ;#
#533
b100 ,"
b1 ;#
#534
b110010 b
b101 ,"
b10000101 q"
b100 ;#
#535
b0 ,"
b101 ;#
#536
b0 b
b1 ,"
b0 q"
b0 ;#
#537
b100 ,"
b1 ;#
#538
b110010 b
b101 ,"
b10000101 q"
b100 ;#
#539
b0 ,"
b101 ;#
#540
b0 b
b1 ,"
b0 q"
b0 ;#
#541
b100 ,"
b1 ;#
#542
b110010 b
b101 ,"
b10000101 q"
b100 ;#
#543
b0 ,"
b101 ;#
#544
b0 b
b1 ,"
b0 q"
b0 ;#
#545
b100 ,"
b1 ;#
#546
b110010 b
b101 ,"
b10000101 q"
b100 ;#
#547
b0 ,"
b101 ;#
#548
b0 b
b1 ,"
b0 q"
b0 ;#
#549
b100 ,"
b1 ;#
#550
b110010 b
b101 ,"
b10000101 q"
b100 ;#
#551
b0 ,"
b101 ;#
#552
b0 b
b1 ,"
b0 q"
b0 ;#
#553
b100 ,"
b1 ;#
#554
b110010 b
b101 ,"
b10000101 q"
b100 ;#
#555
b0 ,"
b101 ;#
#556
b0 b
b1 ,"
b0 q"
b0 ;#
#557
b100 ,"
b1 ;#
#558
b110010 b
b101 ,"
b10000101 q"
b100 ;#
#559
b0 ,"
b101 ;#
#560
b0 b
b1 ,"
b0 q"
b0 ;#
#561
b100 ,"
b1 ;#
#562
b110010 b
b101 ,"
b10000101 q"
b100 ;#
#563
b0 ,"
b101 ;#
#564
b0 b
b1 ,"
b0 q"
b0 ;#
#565
b100 ,"
b1 ;#
#566
b110010 b
b101 ,"
b10000101 q"
b100 ;#
#567
b0 ,"
b101 ;#
#568
b0 b
b1 ,"
b0 q"
b0 ;#
#569
b100 ,"
b1 ;#
#570
b110010 b
b101 ,"
b10000101 q"
b100 ;#
#571
b0 ,"
b101 ;#
#572
b0 b
b1 ,"
b0 q"
b0 ;#
#573
b100 ,"
b1 ;#
#574
b110010 b
b101 ,"
b10000101 q"
b100 ;#
#575
b0 ,"
b101 ;#
#576
b0 b
b1 ,"
b0 q"
b0 ;#
#577
b100 ,"
b1 ;#
#578
b110010 b
b101 ,"
b10000101 q"
b100 ;#
#579
b0 ,"
b101 ;#
#580
b0 b
b1 ,"
b0 q"
b0 ;#
#581
b100 ,"
b1 ;#
#582
b110010 b
b101 ,"
b10000101 q"
b100 ;#
#583
b0 ,"
b101 ;#
#584
b0 b
b1 ,"
b0 q"
b0 ;#
#585
b100 ,"
b1 ;#
#586
b110010 b
b101 ,"
b10000101 q"
b100 ;#
#587
b0 ,"
b101 ;#
#588
b0 b
b1 ,"
b0 q"
b0 ;#
#589
b100 ,"
b1 ;#
#590
b110010 b
b101 ,"
b10000101 q"
b100 ;#
#591
b0 ,"
b101 ;#
#592
b0 b
b1 ,"
b0 q"
b0 ;#
#593
b100 ,"
b1 ;#
#594
b110010 b
b101 ,"
b10000101 q"
b100 ;#
#595
b0 ,"
b101 ;#
#596
b0 b
b1 ,"
b0 q"
b0 ;#
#597
b100 ,"
b1 ;#
#598
b110010 b
b101 ,"
b10000101 q"
b100 ;#
#599
b0 ,"
b101 ;#
#600
b0 b
b1 ,"
b0 q"
b0 ;#
#601
b100 ,"
b1 ;#
#602
b110010 b
b101 ,"
b10000101 q"
b100 ;#
#603
b0 ,"
b101 ;#
#604
b0 b
b1 ,"
b0 q"
b0 ;#
